{
  "data": [
    {
      "entity_type": "advertiser",
      "name": "Advertiser 0",
      "id": 0
    }
  ],
  "meta": {
    "next_page": "https://api.mediamath.com/api/v2.0/advertisers?page_offset=100&api_key=asdfghjklqwert",
    "etag": "c0c341eb304a3a7f18a688d33321b54c9f929ba7",
    "count": 100,
    "called_on": "2016-11-07T11:55:25+0000",
    "status": "ok",
    "offset": 0,
    "total_count": 15540
  },
}