{
  "data": [
    {
      "rejected_reason": "",
      "last_payload_modified": "2016-11-07T11:31:46+0000",
      "updated_on": "2016-11-07T12:14:44+0000",
      "is_https": false,
      "ad_format": "DISPLAY",
      "rich_media": false,
      "created_on": "2016-11-07T11:31:44+0000",
      "expansion_trigger": "MOUSEOVER",
      "tag": "<div>DUMMY_VAST</div>",
      "id": 1234,
      "creative_approvals": [
        {
          "rejected_reason": "",
          "supply_source_id": 4,
          "rel": "creative_approvals",
          "approval_status": "PENDING",
          "version": 0,
          "name": "Creative Approvals #56343812",
          "updated_on": "2016-11-07T11:43:01+0000",
          "created_on": "2016-11-05T23:00:00+0000",
          "entity_type": "creative_approval",
          "id": 12345,
          "atomic_creative_id": 1234
        }
      ],
      "built": false,
      "last_modified": "2016-11-07T11:43:01+0000",
      "name": "Dummy atomi creative",
      "t1as": false,
      "file_type": "vast",
      "end_date": "2016-12-07T11:00:00+0000",
      "built_by_user_id": 11397,
      "expansion_direction": "NONRESTRICTED",
      "concept_id": 15,
      "advertiser_id": 29,
      "width": 0,
      "has_sound": false,
      "status": true,
      "external_identifier": "STUB",
      "is_multi_creative": false,
      "vast_version": 3,
      "media_type": "video",
      "entity_type": "atomic_creative",
      "start_date": "2016-11-07T11:00:00+0000",
      "sizmek_tag_status": "NOT_USED",
      "is_mraid": false,
      "sizmek_creative_status": "NOT_USED",
      "approval_status": "APPROVED",
      "version": 3,
      "height": 0,
      "tag_type": "VIDEO",
      "tpas_ad_tag_name": "unknown.stub"
    }
  ],
  "meta": {
    "next_page": "https://api.mediamath.com/api/v2.0/atomic_creatives?page_offset=1&with=advertiser&with=concept&api_key=qwertyuiop&page_limit=1",
    "etag": "c2fee507a02501dd81c90e9c333114b57602ee81",
    "count": 1,
    "called_on": "2016-11-07T12:17:53+0000",
    "status": "ok",
    "offset": 0,
    "total_count": 1114375
  }
}