{
  "data": [
    {
      "rmx_conversion_type": "one",
      "rmx_merit": false,
      "advertiser_id": 55,
      "status": true,
      "rmx_conversion_minutes": 1,
      "external_identifier": "1187330469",
      "eligible": true,
      "updated_on": "2016-11-07T12:16:13+0000",
      "keywords": "",
      "created_on": "2016-11-07T12:16:13+0000",
      "entity_type": "pixel_bundle",
      "id": 111,
      "rmx_friendly": false,
      "pixel_type": "event",
      "version": 1,
      "name": "Dummy event pixel",
      "tags": "<script language='JavaScript1.1' src='//pixel.mathtag.com/event/js?mt_id=111&mt_adid=55&v1=&v2=&v3=&s1=&s2=&s3='></script>",
      "tag_type": "js",
      "pricing": "CPM"
    }
  ],
  "meta": {
    "next_page": "https://api.mediamath.com/api/v2.0/pixel_bundles?page_offset=1&q=pixel_type%3D%3Devent&full=*&api_key=qweertuyiop&page_limit=1",
    "etag": "0706fb3705dccb2ff17545dc85a7a8974004b9ca",
    "count": 1,
    "called_on": "2016-11-07T13:20:45+0000",
    "status": "ok",
    "offset": 0,
    "total_count": 164421
  }
}